{
	"builders": [
		{
			"type": "virtualbox-iso",
			"iso_url": "http://ftp.mgts.by/debian-cd/current/amd64/iso-cd/debian-7.5.0-amd64-netinst.iso",
			"iso_checksum": "8fdb6715228ea90faba58cb84644d296",
			"iso_checksum_type": "md5",
			"disk_size": "5000",
			"guest_os_type": "Debian_64",
			"hard_drive_interface": "sata",
			"ssh_username": "root",
			"ssh_password": "r00t-pa55w0rd",
			"shutdown_command": "shutdown -h now",
			"http_directory": "preseed",
			"boot_command": [
				"<esc> ",
				"install ",
				"preseed/url=http://{{ .HTTPIP }}:{{ .HTTPPort }}/preseed.cfg ",
				"debian-installer=en_US ",
				"auto ",
				"locale=en_US ",
				"kbd-chooser/method=us ",
				"netcfg/get_hostname={{ .Name }} ",
				"netcfg/get_domain=vagrantup.com ",
				"fb=false ",
				"debconf/frontend=noninteractive ",
				"console-setup/ask_detect=false ",
				"console-keymaps-at/keymap=us ",
				"keyboard-configuration/xkb-keymap=us ",
				"<enter>"
			]
		}
	],
	"provisioners": [
		{
			"type": "shell",
			"script": "provisioning/base.sh"
		},
		{
			"type": "shell",
			"script": "provisioning/vagrant.sh"
		},
		{
			"type": "shell",
			"script": "provisioning/virtualbox.sh"
		},
        {
            "type": "shell",
            "script": "provisioning/ansible.sh"
        },
		{
			"type": "shell",
			"script": "provisioning/cleanup.sh"
		},
		{
			"type": "shell",
			"script": "provisioning/zerodisk.sh"
		}
	],
	"post-processors": [
		{
			"type": "vagrant",
			"compression_level": 9
		}
	]
}
